{
  "success": true,
  "data": [
    {
      "name": "Aabhas",
      "isSelcted": false
    },
    {
      "name": "Aadavan",
      "isSelcted": false
    },
    {
      "name": "Dahana",
      "isSelcted": false
    },
    {
      "name": "Baanbhatt",
      "isSelcted": false
    },
    {
      "name": "Daivya",
      "isSelcted": false
    },
    {
      "name": "Babala",
      "isSelcted": false
    },
    {
      "name": "Cakrin",
      "isSelcted": false
    },
    {
      "name": "Aadi",
      "isSelcted": false
    },
    {
      "name": "Cekitana",
      "isSelcted": false
    },
    {
      "name": "Oghavan",
      "isSelcted": false
    },
    {
      "name": "Ibhanan",
      "isSelcted": false
    },
    {
      "name": "Sadal",
      "isSelcted": false
    },
    {
      "name": "Vaamdev",
      "isSelcted": false
    },
    {
      "name": "Maalolan",
      "isSelcted": false
    },
    {
      "name": "Jagachandra",
      "isSelcted": false
    },
    {
      "name": "Jagadananda",
      "isSelcted": false
    },
    {
      "name": "Wahab",
      "isSelcted": false
    },
    {
      "name": "Babhru",
      "isSelcted": false
    },
    {
      "name": "Ucathya",
      "isSelcted": false
    },
    {
      "name": "Qaisar",
      "isSelcted": false
    },
    {
      "name": "Qureshi",
      "isSelcted": false
    },
    {
      "name": "Nabhacaksus",
      "isSelcted": false
    },
    {
      "name": "Nabhagarista",
      "isSelcted": false
    },
    {
      "name": "Yadavaraya",
      "isSelcted": false
    },
    {
      "name": "Yadaspati",
      "isSelcted": false
    },
    {
      "name": "Obalesvara",
      "isSelcted": false
    }
  ]
}